{
  "code": 0,
  "result": {
    "page": 1,
    "page_size": 10,
    "total": 60,
    "page_count": 6,
    "item_list|10": [{
      "id|+1": 1,
      "name": "@city",
      "mode|1-2": 1,
      "op_mode|1-2": 1,
      "franchise_id": 77,
      "franchise_name": 'Pine Cone',
      "city_admins|1-2": [{
        "user_name": "@name",
        "user_id|+1": 1001
      }],
      "open_time": "@datetime",
      "update_time": 1520476737000,
      "sys_user_name": "mockname",
    }]
  }
}